%YAML 1.1
%TAG !u! tag:unity3d.com,2011:
--- !u!114 &11400000
MonoBehaviour:
  m_ObjectHideFlags: 0
  m_CorrespondingSourceObject: {fileID: 0}
  m_PrefabInstance: {fileID: 0}
  m_PrefabAsset: {fileID: 0}
  m_GameObject: {fileID: 0}
  m_Enabled: 1
  m_EditorHideFlags: 0
  m_Script: {fileID: 11500000, guid: 76408c1370d1c5449bbb4458ddc288b2, type: 3}
  m_Name: Level_2_2
  m_EditorClassIdentifier: 
  list:
  - {fileID: 11400000, guid: 1da924bd284ddcd4491f2cdf64e53a3c, type: 2}
  - {fileID: 11400000, guid: cbe5ef81a1c7a4147b39e6de26080fa2, type: 2}
  - {fileID: 11400000, guid: eb301a8c5c79fc347b3bcc62d643fb29, type: 2}
  - {fileID: 11400000, guid: 17ab884cfda4dc6468eb9d86291139d5, type: 2}
  - {fileID: 11400000, guid: eb301a8c5c79fc347b3bcc62d643fb29, type: 2}
  - {fileID: 11400000, guid: 53fd29cbcfb904749928efc89c4d316d, type: 2}
